// Jest Snapshot v1, https://goo.gl/fbAQLP

exports[`When using snapshots Should render with no children and a color 1`] = `
<Map.Marker
  color="hsl(273, 80%, 80%)"
  icon=""
  key=".0"
  position={
    Array [
      12.3,
      45.6,
    ]
  }
  shape="pointerClassic"
  theme="default"
>
  <div />
</Map.Marker>
`;

exports[`When using snapshots Should render with no children and a shape 1`] = `
<Map.Marker
  color=""
  icon=""
  key=".0"
  position={
    Array [
      12.3,
      45.6,
    ]
  }
  shape="basicDiamond"
  theme="default"
>
  <div />
</Map.Marker>
`;

exports[`When using snapshots Should render with no children and a theme 1`] = `
<Map.Marker
  color=""
  icon=""
  key=".0"
  position={
    Array [
      12.3,
      45.6,
    ]
  }
  shape="pointerClassic"
  theme="red"
>
  <div />
</Map.Marker>
`;

exports[`When using snapshots Should render with no children and an icon 1`] = `
<Map.Marker
  color=""
  icon="home"
  key=".0"
  position={
    Array [
      12.3,
      45.6,
    ]
  }
  shape="pointerClassic"
  theme="default"
>
  <div />
</Map.Marker>
`;

exports[`When using snapshots Should render with no children and no optional props 1`] = `
<Map.Marker
  color=""
  icon=""
  key=".0"
  position={
    Array [
      12.3,
      45.6,
    ]
  }
  shape="pointerClassic"
  theme="default"
>
  <div />
</Map.Marker>
`;
