// Jest Snapshot v1, https://goo.gl/fbAQLP

exports[`When using snapshots Should render with data 1`] = `
<Osmosestyle__StyledOsmose
  className=""
>
  <Titlebar
    block={true}
    className=""
    container="parent"
    floating={true}
    maximized={false}
    onMaximize={null}
    onUnmaximize={null}
    position="top-center"
    size="sm"
  >
    Pitch not integrated Terrain de volley-ball
  </Titlebar>
  <div>
    <h3>
      Terrain de volley-ball, Terrain de Volley-Ball de Oua Tom, Terrain de Volley de la Tribu de Oua Tom
    </h3>
    <div>
      <Suggestion
        className="new"
        fixes={
          Object {
            "add": Array [
              Object {
                "k": "leisure",
                "v": "pitch",
              },
              Object {
                "k": "source",
                "v": "data.gouv.fr:Le ministère des droits des femmes, de la ville, de la jeunesse et des sports - 11/2015",
              },
              Object {
                "k": "sport",
                "v": "volleyball",
              },
              Object {
                "k": "surface",
                "v": "asphalt",
              },
            ],
            "del": Array [],
            "mod": Array [],
            "num": 0,
          }
        }
        handleClick={[Function]}
        number={null}
        osm={null}
        title={null}
        type="NEW"
      />
    </div>
  </div>
</Osmosestyle__StyledOsmose>
`;

exports[`When using snapshots Should render with data 2`] = `
<Osmosestyle__StyledOsmose
  className=""
>
  <Titlebar
    block={true}
    className=""
    container="parent"
    floating={true}
    maximized={false}
    onMaximize={null}
    onUnmaximize={null}
    position="top-center"
    size="sm"
  >
    School, integration suggestion
  </Titlebar>
  <div>
    <h3>
      École primaire Louis Andrea 1, RUE EUTROPE MARIAN, 97122, BAIE MAHAULT (positioned: building, matching: manual)
    </h3>
    <div>
      <Suggestion
        className=""
        fixes={null}
        handleClick={[Function]}
        key="0"
        number={null}
        osm={
          Array [
            Object {
              "k": "amenity",
              "v": "school",
            },
            Object {
              "k": "name",
              "v": "Collège Maurice SATINEAU",
            },
          ]
        }
        title={null}
        type="ORIGINAL"
      />
      <Suggestion
        className=""
        fixes={
          Object {
            "add": Array [
              Object {
                "k": "ref:UAI",
                "v": "9710194J",
                "vlink": "http://www.education.gouv.fr/pid24302/annuaire-resultat-recherche.html?lycee_name=9710194J",
              },
              Object {
                "k": "school:FR",
                "v": "primaire",
              },
              Object {
                "k": "source",
                "v": "data.gouv.fr:Éducation Nationale - 05/2016",
              },
            ],
            "del": Array [],
            "mod": Array [],
            "num": 0,
          }
        }
        handleClick={[Function]}
        key="1"
        number={1}
        osm={null}
        title={null}
        type="MODIFICATION"
      />
      <Suggestion
        className=""
        fixes={
          Object {
            "add": Array [
              Object {
                "k": "ref:UAI",
                "v": "9710194J",
                "vlink": "http://www.education.gouv.fr/pid24302/annuaire-resultat-recherche.html?lycee_name=9710194J",
              },
              Object {
                "k": "school:FR",
                "v": "primaire",
              },
              Object {
                "k": "source",
                "v": "data.gouv.fr:Éducation Nationale - 05/2016",
              },
            ],
            "del": Array [
              Object {
                "k": "amenity",
                "v": "school",
              },
            ],
            "mod": Array [
              Object {
                "k": "name",
                "v": "École primaire Louis Andrea 1",
              },
            ],
            "num": 1,
          }
        }
        handleClick={[Function]}
        key="2"
        number={2}
        osm={null}
        title={null}
        type="MODIFICATION"
      />
    </div>
  </div>
</Osmosestyle__StyledOsmose>
`;

exports[`When using snapshots Should render with no data 1`] = `
<Osmosestyle__StyledOsmose
  className=""
>
  <div />
</Osmosestyle__StyledOsmose>
`;

exports[`When using snapshots Should render with no data 2`] = `
<Osmosestyle__StyledOsmose
  className=""
>
  <div />
</Osmosestyle__StyledOsmose>
`;
