// Jest Snapshot v1, https://goo.gl/fbAQLP

exports[`When using snapshots Should render with an element children 1`] = `
<Suggestion
  className=""
  fixes={null}
  handleClick={null}
  key=".0"
  number={null}
  osm={null}
  title={null}
  type="MODIFICATION"
>
  <div />
</Suggestion>
`;

exports[`When using snapshots Should render with custom title 1`] = `
<Suggestionstyle__StyledSuggestion
  className="osm"
  onClick={null}
>
  <div
    className="title"
  >
    test
  </div>
</Suggestionstyle__StyledSuggestion>
`;

exports[`When using snapshots Should render with new data 1`] = `
<Suggestionstyle__StyledSuggestion
  className="fix"
  onClick={null}
>
  <div
    className="title"
  >
    New data
  </div>
  <div
    className="infos"
  >
    <div
      className="info add"
      key="leisure"
    >
      <div
        className="tag"
      >
        leisure
      </div>
      <div
        className="value"
      >
        pitch
      </div>
    </div>
    <div
      className="info add"
      key="source"
    >
      <div
        className="tag"
      >
        source
      </div>
      <div
        className="value"
      >
        data.gouv.fr:Le ministère des droits des femmes, de la ville, de la jeunesse et des sports - 11/2015
      </div>
    </div>
    <div
      className="info add"
      key="sport"
    >
      <div
        className="tag"
      >
        sport
      </div>
      <div
        className="value"
      >
        volleyball
      </div>
    </div>
    <div
      className="info add"
      key="surface"
    >
      <div
        className="tag"
      >
        surface
      </div>
      <div
        className="value"
      >
        asphalt
      </div>
    </div>
  </div>
</Suggestionstyle__StyledSuggestion>
`;

exports[`When using snapshots Should render with only osm 1`] = `
<Suggestionstyle__StyledSuggestion
  className="osm"
  onClick={null}
>
  <div
    className="title"
  >
    Suggestion n°null
  </div>
  <div
    className="infos"
  >
    <div
      className="info"
      key="amenity"
    >
      <div
        className="tag"
      >
        amenity
      </div>
      <div
        className="value"
      >
        school
      </div>
    </div>
    <div
      className="info"
      key="name"
    >
      <div
        className="tag"
      >
        name
      </div>
      <div
        className="value"
      >
        Collège Maurice SATINEAU
      </div>
    </div>
  </div>
</Suggestionstyle__StyledSuggestion>
`;

exports[`When using snapshots Should render with osm fixable data 1`] = `
<Suggestionstyle__StyledSuggestion
  className="fix"
  onClick={null}
>
  <div
    className="title"
  >
    Suggestion n°1
  </div>
  <div
    className="infos"
  >
    <div
      className="info add"
      key="ref:UAI"
    >
      <div
        className="tag"
      >
        ref:UAI
      </div>
      <div
        className="value"
      >
        9710194J
      </div>
    </div>
    <div
      className="info add"
      key="school:FR"
    >
      <div
        className="tag"
      >
        school:FR
      </div>
      <div
        className="value"
      >
        primaire
      </div>
    </div>
    <div
      className="info add"
      key="source"
    >
      <div
        className="tag"
      >
        source
      </div>
      <div
        className="value"
      >
        data.gouv.fr:Éducation Nationale - 05/2016
      </div>
    </div>
    <div
      className="info mod"
      key="name"
    >
      <div
        className="tag"
      >
        name
      </div>
      <div
        className="value"
      >
        École primaire Louis Andrea 1
      </div>
    </div>
    <div
      className="info del"
      key="amenity"
    >
      <div
        className="tag"
      >
        amenity
      </div>
      <div
        className="value"
      >
        school
      </div>
    </div>
  </div>
</Suggestionstyle__StyledSuggestion>
`;
