// Jest Snapshot v1, https://goo.gl/fbAQLP

exports[`When using initialization Should render correctly 1`] = `
<Groupstyle__StyledGroup
  className="direction-column first-shape- last-shape- first-size- last-size-"
  firstSize=""
  lastSize=""
>
  <Toolbar.Item
    className=""
    icon="bars"
    inGroup={true}
    inactive={false}
    key=".0"
    loading={false}
    shape="round"
    size="md"
    type="button"
  />
</Groupstyle__StyledGroup>
`;
